-6 7 -26 -32 28 -3 46 -16 31 35 8 -7 40 -18 -39 22 -41 14 -32 47 18 -34 35 -46 -37 -31 -46 50 -35 -40 -42 2 3 -37 -12 1 -38 29 -20 -4 41 6 -27 -4 -46 -12 26
-5 26 11 -18 -31 -50 40 -9 -49 -35 -49 34 -43 -7 -29 45 27 7 2 45 8 -31 45 -21 37 -34 -13 -21 25 -8 -21 -36 -44 46 4 35 -47 -26 21 23 48 20 28 -20 23 9 33
-44 -45 -20 -34 -22 -1 20
