24 30 28 37 -6 -30
-14 -26 11 39 12 24
-9 -49 10 10 -34 31 -42 42 25 -42 13 25 7 -2 -2 34 45 -4 30 -42 46 8 -38 44 -8 -6 11 17 34 47 -2 -14 33 38 -7 50 -30 -43 2 9 -13 2 21 -35 2 -34 -11 4 40 25 -36 40 -14 8 -26 13 -12 11 17 40 31 28 49 11 42 -36 -36 2 16
