29 -49 25 -12 47 -30 9 -6 -45 26 -49 25 18 -37 48 -11 -28 -20 -33 -12 -17 -2 49 31 12 43 32 26 -18 16 23 -30
39 -35 31 -28 40 -43 46 48 1 8 11 15 -14 8 0 10 25 13 -1 38 1 -25 -42 -34 -14 16 5 -1 24 -16 -15 32
-44 29 26 29 34 -31 -27 -2 -1 22 -50 23 -44 -42 5 30 -33 -27 -4 -26 -23 -39 -37 31 -29 -1 -48 -11 11 -4 47 -26 23 11 42 -46 -10 -26 -2 -49 8 18 24 6 -6 -50 -36 -43 38 -13
