16 50 43 10 21 -50 20 -36 -10 -42 43 8 -28 43 -13 -18 13 15 36 -15 45 -38 -44 -1 -47 24 6 6 -47 -18 -20 37 8 -41 -44 -42 42 47 8 -45 -17 12 3 -14 27 12 -37 -23 -32 28 1 1
-30 5 1 29 -21 -47 35 7 19 36 44 22 20 48 28 47 -42 22 -2 48 -3 21 -43 -28 5 -15 20 -20 13 18 -41 -4 14 41 38 16 45 8 5 21 8 -42 9 -31 20 -4 -17 12 13 -9 -25 -4
16 6 -26 24 27 -33 10 34 14 12 -29 -28 -21 6 4 -6 -20 -50 20 46 33 1 -43 -38 27 39 -6 9 30 22 -31
