-32 23 -38 10 21 -20 44 -28 8 6 -43 14 -5 16 6 -13 -47 -19 35 32 42 -10 43 11 -41 14 -44 -9 21 -41 -49 26 13 -5 -4 -25 -27 -42 -9 -7 22
-24 -48 -28 42 10 -36 -9 2 -22 19 3 2 -29 7 -26 3 8 -29 -16 7 -15 47 -23 -29 2 -41 27 12 -40 38 -27 -28 8 -46 -4 32 33 46 21 17 10
-1 22 -20 -12 9 -33 45 25 18 48 37 -46 -20 21 35 -31 34 22 6 -32 -6 -33 -7 47 -17 8 -23 13 -49 -21 -5 38 -6 32 -3 -17 47 29 19 -13 -25 44 28 38 -24 10 -34 -30 6 10 31 -47 -33 -31 21 -1 36 2 39
