-25 42 0 44 -19 -26 49 22 -10 39 -38 -9 9 -5 18 41 -38 31 18 -19 -13 -39 -26 -48 45 12 25 48 -19 12 -21 34 -25 -25 -11 -18 30 -38 34 29 -34 27 9 -50 -46 -1 -27 44 -23 -6 50 27 10 6 -15 -13 46 38 -26 -18 -18 -48 -8 -10 -30 -15 8 9 0 -13 -27 -1 41 -28 39 -40 -46 43 38 49 29 17 -27 12 10 20 6 -6 46 26 -36 25 -4 34 -15 33 -42 48 49
-1 8 46 41 -39 49 46 -39 -45 -45 2 6 23 22 18 -32 -28 2 23 -42 47 -39 -29 -41 35 3 -6 48 -41 42 31 -14 -1 31 -17 -8 21 -39 -22 50 -1 -15 39 14 32 6 45 31 47 -26 -42 -42 20 -1 -30 -34 12 -29 50 12 -36 -35 21 40 49 -3 38 -20 -31 -24 31 42 -14 18 -32 19 16 -12 36 9 -17 -28 -21 30 5 24 45 47 40 9 -11 -46 -16 49 -4 -18 -17 16 -11
-4 -33 -38 -9 -32 -1 31 -27 11 -15
