-8 30 25 -43 21 -19 4 -15 -5 1 -21 -4 43 36 25 10 29 39 29 44 27 2 -19 14 11 39 44 36 6 -28 19 48 -37 1 48 10 -36 8 1 48 7 -40 40 26 -22 42 -21 13 -8 -17 13 -38 20 8 33 11 -21 -31 -47 22 19 36 -1 10 6 33 43 6 24 37 18 -36 48 -28 46
-33 -4 -21 19 12 16 27 43 -37 12 -17 -2 -31 -38 8 -14 17 -2 -26 24 -34 13 37 -15 -23 33 -45 1 21 -27 -21 2 4 -49 47 29 5 15 33 33 -32 2 2 -46 -30 35 47 32 41 -35 40 18 -41 -41 24 12 30 2 -28 -15 20 -35 -21 41 14 -2 24 -21 -33 -11 40 18 1 -23 -35
48 -44 -16 45 5 -38 -15 -32
